{
  "project_info": {
    "project_number": "315601416",
    "project_id": "amigos-67a90",
    "storage_bucket": "amigos-67a90.appspot.com"
  },
  "client": [
    {
      "client_info": {
        "mobilesdk_app_id": "1:315601416:android:1fd2ae2a86bd822b0e57bd",
        "android_client_info": {
          "package_name": "es.uniovi.amigos"
        }
      },
      "oauth_client": [
        {
          "client_id": "315601416-1jr4tmrl2o0ppenejkkpjqai8el2r82r.apps.googleusercontent.com",
          "client_type": 3
        }
      ],
      "api_key": [
        {
          "current_key": "AIzaSyApHpegwK4obKgSfzQb6IDPviUt_U0eOCQ"
        }
      ],
      "services": {
        "appinvite_service": {
          "other_platform_oauth_client": [
            {
              "client_id": "315601416-1jr4tmrl2o0ppenejkkpjqai8el2r82r.apps.googleusercontent.com",
              "client_type": 3
            }
          ]
        }
      }
    }
  ],
  "configuration_version": "1"
}